#100 year storage CSNF from 2015clay/general
    TIME_UNITS y
    DATA_UNITS kg/s kg/s MW
# time  liquid gas energy (MW)
      0.000E+00   0.d0 0.d0          0.003084
      2.500E+01   0.d0 0.d0          0.002448
      5.000E+01   0.d0 0.d0          0.00204
      7.500E+01   0.d0 0.d0          0.001764
      1.000E+02   0.d0 0.d0          0.00156
      1.250E+02   0.d0 0.d0          0.001416
      1.500E+02   0.d0 0.d0          0.001308
      2.000E+02   0.d0 0.d0          0.0011376
      2.500E+02   0.d0 0.d0          0.0010164
      3.000E+02   0.d0 0.d0          0.0009228
      3.500E+02   0.d0 0.d0          0.0008484
      4.000E+02   0.d0 0.d0          0.0007872
      5.000E+02   0.d0 0.d0          0.00069
      6.000E+02   0.d0 0.d0          0.0006144
      7.000E+02   0.d0 0.d0          0.0005544
      8.000E+02   0.d0 0.d0          0.0005052
      9.000E+02   0.d0 0.d0          0.0004632
      1.150E+03   0.d0 0.d0          0.0003852
      1.400E+03   0.d0 0.d0          0.0003312
      1.650E+03   0.d0 0.d0          0.0002928
      1.900E+03   0.d0 0.d0          0.0002664
      2.150E+03   0.d0 0.d0          0.0002472
      2.400E+03   0.d0 0.d0          0.000234
      2.900E+03   0.d0 0.d0          0.0002148
      3.900E+03   0.d0 0.d0          0.000192
      4.900E+03   0.d0 0.d0          0.0001776
      5.900E+03   0.d0 0.d0          0.0001656
      6.900E+03   0.d0 0.d0          0.0001536
      7.900E+03   0.d0 0.d0          0.000144
      8.900E+03   0.d0 0.d0          0.0001344
      9.900E+03   0.d0 0.d0          0.000126
      1.990E+04   0.d0 0.d0          0.0000708
      4.990E+04   0.d0 0.d0          0.0000252
      9.990E+04   0.d0 0.d0          0.0000096
      1.999E+05   0.d0 0.d0          0.000006
      4.999E+05   0.d0 0.d0          0.0000048
      9.999E+05   0.d0 0.d0          0.0000036
    /

